id,name,model_id:id,group_id:id,perm_read,perm_write,perm_create,perm_unlink
access_multi_delivery_stock,multi.delivery.stock,model_multi_delivery,stock.group_stock_user,1,1,1,1
access_multi_delivery,multi.delivery,model_multi_delivery,helpdesk.group_helpdesk_user,1,1,1,0
access_helpdesk_ticket_manager,helpdesk.ticket.manager,model_helpdesk_ticket,helpdesk.group_helpdesk_manager,1,1,1,1
