id,name,model_id:id,group_id:id,perm_read,perm_write,perm_create,perm_unlink
access_mrp_report_work_mrp_report_work,mrp_report_work.mrp_report_work,model_mrp_report_work_mrp_report_work,group_mrp_report_work_user,1,0,0,0
access_mrp_report_work_mrp_report_work_manager,mrp_report_work.mrp_report_work.manager,model_mrp_report_work_mrp_report_work,group_mrp_report_work_manager,1,1,1,1
access_mrp_report_work_mrp_report_work_line,mrp_report_work.mrp_report_work_line,model_mrp_report_work_mrp_report_work_line,group_mrp_report_work_user,1,0,0,0
access_mrp_report_work_mrp_report_work_line,mrp_report_work.mrp_report_work_line,model_mrp_report_work_mrp_report_work_line,group_mrp_report_work_manager,1,1,1,1